转录组下游分析
…
# 基因编码  BiocManager::install("rtracklayer")
gtf_v22 <- rtracklayer::import('data/gencode.v22.annotation.gtf.gz') |>
 as_tibble()
write_csv(gtf_v22,file = "data/gtf_v22.csv")

Code

# 提取mRNA相关基因
gtf_mrna_v22 <- dplyr::select(gtf_v22,
                              c("gene_id","gene_type", "gene_name"))|> 
    dplyr::filter(gene_type == "protein_coding") |>  
    distinct()

gtf_mrna_v22 
#> # A tibble: 19,814 × 3
#>    gene_id            gene_type      gene_name 
#>    <chr>              <chr>          <chr>     
#>  1 ENSG00000186092.4  protein_coding OR4F5     
#>  2 ENSG00000279928.1  protein_coding FO538757.3
#>  3 ENSG00000279457.2  protein_coding FO538757.2
#>  4 ENSG00000278566.1  protein_coding OR4F29    
#>  5 ENSG00000273547.1  protein_coding OR4F16    
#>  6 ENSG00000187634.9  protein_coding SAMD11    
#>  7 ENSG00000188976.9  protein_coding NOC2L     
#>  8 ENSG00000187961.12 protein_coding KLHL17    
#>  9 ENSG00000187583.9  protein_coding PLEKHN1   
#> 10 ENSG00000187642.8  protein_coding PERM1     
#> # ℹ 19,804 more rows
write_csv(gtf_mrna_v22,file = "data/gtf_mrna_v22.csv")

Code

# 根据注释文件把Ensembl ID转换为gene ID
gene_logCount <- raw_logCount |> 
  inner_join(gtf_mrna_v22, by = c("Ensembl_ID" = "gene_id")) |> 
  dplyr::select(gene_name, starts_with("TCGA") )

gene_logCount
#> # A tibble: 19,814 × 46
#>    gene_name `TCGA-ZD-A8I3-01A` `TCGA-W5-AA2U-11A` `TCGA-W5-AA30-01A`
#>    <chr>                  <dbl>              <dbl>              <dbl>
#>  1 TSPAN6                 12.4               11.3               12.3 
#>  2 TNMD                    1                  1                  0   
#>  3 DPM1                   10.2                9.36              10.7 
#>  4 SCYL3                   9.56               8.44              11.4 
#>  5 C1orf112                8.54               5.13              10.0 
#>  6 FGR                     7.17               8.29               8.57
#>  7 CFH                    14.1               15.1               11.7 
#>  8 FUCA2                  11.7               10.6               11.6 
#>  9 GCLC                   11.1               12.2               11.7 
#> 10 NFYA                   10.5                9.04              10.9 
#> # ℹ 19,804 more rows
#> # ℹ 42 more variables: `TCGA-W5-AA38-01A` <dbl>, `TCGA-W5-AA30-11A` <dbl>,
#> #   `TCGA-YR-A95A-01A` <dbl>, `TCGA-W5-AA36-01A` <dbl>,
#> #   `TCGA-W5-AA2U-01A` <dbl>, `TCGA-ZH-A8Y2-01A` <dbl>,
#> #   `TCGA-3X-AAVB-01A` <dbl>, `TCGA-W5-AA2Z-01A` <dbl>,
#> #   `TCGA-W5-AA2X-01A` <dbl>, `TCGA-W5-AA34-11A` <dbl>,
#> #   `TCGA-ZH-A8Y6-01A` <dbl>, `TCGA-ZH-A8Y1-01A` <dbl>, …
write_csv(gene_logCount,"data/gene_logCount.csv")

基因名是有重复的，其中有100个出现了2次，有1个出现了3次

Code

gene_logCount |> summarise(n=n(),.by = gene_name) |> 
    dplyr::filter(n==1) 
#> # A tibble: 19,611 × 2
#>    gene_name     n
#>    <chr>     <int>
#>  1 TSPAN6        1
#>  2 TNMD          1
#>  3 DPM1          1
#>  4 SCYL3         1
#>  5 C1orf112      1
#>  6 FGR           1
#>  7 CFH           1
#>  8 FUCA2         1
#>  9 GCLC          1
#> 10 NFYA          1
#> # ℹ 19,601 more rows
gene_logCount |> summarise(n=n(),.by = gene_name) |> 
    dplyr::filter(n==2) 
#> # A tibble: 100 × 2
#>    gene_name     n
#>    <chr>     <int>
#>  1 CD99          2
#>  2 IDS           2
#>  3 MATR3         2
#>  4 PI4K2B        2
#>  5 CFHR2         2
#>  6 IL12RB2       2
#>  7 TAF9          2
#>  8 KIAA0391      2
#>  9 SIGLEC5       2
#> 10 PIK3R2        2
#> # ℹ 90 more rows
gene_logCount |> summarise(n=n(),.by = gene_name) |> 
    dplyr::filter(n==3) 
#> # A tibble: 1 × 2
#>   gene_name     n
#>   <chr>     <int>
#> 1 C12orf79      3

先去对数（ log2(Count+1））

Code

gene_Count <- gene_logCount |> 
 mutate_if(is.numeric,~2^(.)-1)
gene_Count
#> # A tibble: 19,814 × 46
#>    gene_name `TCGA-ZD-A8I3-01A` `TCGA-W5-AA2U-11A` `TCGA-W5-AA30-01A`
#>    <chr>                  <dbl>              <dbl>              <dbl>
#>  1 TSPAN6                 5254.               2476              5132 
#>  2 TNMD                      1                   1                 0 
#>  3 DPM1                   1212.                655              1644.
#>  4 SCYL3                   753                 346              2652 
#>  5 C1orf112                370                  34              1044.
#>  6 FGR                     143                 311               378 
#>  7 CFH                   17588.              35982              3352 
#>  8 FUCA2                  3235.               1589              2998 
#>  9 GCLC                   2180                4711              3248.
#> 10 NFYA                   1411                 525              1916 
#> # ℹ 19,804 more rows
#> # ℹ 42 more variables: `TCGA-W5-AA38-01A` <dbl>, `TCGA-W5-AA30-11A` <dbl>,
#> #   `TCGA-YR-A95A-01A` <dbl>, `TCGA-W5-AA36-01A` <dbl>,
#> #   `TCGA-W5-AA2U-01A` <dbl>, `TCGA-ZH-A8Y2-01A` <dbl>,
#> #   `TCGA-3X-AAVB-01A` <dbl>, `TCGA-W5-AA2Z-01A` <dbl>,
#> #   `TCGA-W5-AA2X-01A` <dbl>, `TCGA-W5-AA34-11A` <dbl>,
#> #   `TCGA-ZH-A8Y6-01A` <dbl>, `TCGA-ZH-A8Y1-01A` <dbl>, …

根据基因id分组，重复，则取平均值去重，去掉重复的102行

Code

Counts <- gene_Count |> 
 group_by(gene_name) |> 
 summarise_all(mean,na.rm=TRUE)

Counts |> summarise(n=n(),.by = gene_name) |> 
    dplyr::filter(n==1) 
#> # A tibble: 19,712 × 2
#>    gene_name     n
#>    <chr>     <int>
#>  1 A1BG          1
#>  2 A1CF          1
#>  3 A2M           1
#>  4 A2ML1         1
#>  5 A3GALT2       1
#>  6 A4GALT        1
#>  7 A4GNT         1
#>  8 AAAS          1
#>  9 AACS          1
#> 10 AADAC         1
#> # ℹ 19,702 more rows
…
到这里，就从71个样本中挑出了45个样本，但是，我们只要这45个样本中成对样本的表达数据，即同一个病人既有癌旁正常细胞的表达蛋白，又有肿瘤细胞的异常表达蛋白。

Code

# 前缀1~12字符

sample <- sample |> mutate(patient_id = str_sub(sample[,1],1,12)) |> 
 group_by(patient_id) |> mutate(n = n()) |> ungroup()

sample <- dplyr::filter(sample,n==2) |> dplyr::select(-n)

sample # 筛选出 15对 成对数据
#> # A tibble: 30 × 4
#>    phenotypeID      neoplasm_histologic_grade tumor_stage.diagnoses patient_id  
#>    <chr>            <chr>                     <chr>                 <chr>       
#>  1 TCGA-W5-AA30-01A G3                        stage i               TCGA-W5-AA30
#>  2 TCGA-W5-AA30-11A G3                        stage i               TCGA-W5-AA30
#>  3 TCGA-W5-AA2R-01A G3                        stage i               TCGA-W5-AA2R
#>  4 TCGA-W5-AA2R-11A G3                        stage i               TCGA-W5-AA2R
#>  5 TCGA-4G-AAZR-01A G2                        stage ii              TCGA-4G-AAZR
#>  6 TCGA-4G-AAZR-11A G2                        stage ii              TCGA-4G-AAZR
#>  7 TCGA-W5-AA2Z-01A G3                        stage ii              TCGA-W5-AA2Z
#>  8 TCGA-W5-AA2Z-11A G3                        stage ii              TCGA-W5-AA2Z
#>  9 TCGA-W5-AA31-01A G3                        stage i               TCGA-W5-AA31
#> 10 TCGA-W5-AA31-11A G3                        stage i               TCGA-W5-AA31
#> # ℹ 20 more rows
…
